<?xml version="1.0" encoding="UTF-8" standalone="no"?>
<svg
     xmlns:dc="http://purl.org/dc/elements/1.1/"
     xmlns:cc="http://creativecommons.org/ns#"
     xmlns:rdf="http://www.w3.org/1999/02/22-rdf-syntax-ns#"
     xmlns:svg="http://www.w3.org/2000/svg"
     xmlns="http://www.w3.org/2000/svg"
     xmlns:sodipodi="http://sodipodi.sourceforge.net/DTD/sodipodi-0.dtd"
     xmlns:inkscape="http://www.inkscape.org/namespaces/inkscape"
     width="256"
     height="256"
     viewBox="0 0 67.733332 67.733335"
     version="1.1"
     id="svg8"
     inkscape:version="1.0.1 (3bc2e813f5, 2020-09-07)"
     sodipodi:docname="window-list.svg"
     inkscape:export-filename="/home/cosmos/Softwares/Projects/DesQ/DesQ-Utils/Panel/icons/window-list.png"
     inkscape:export-xdpi="111.71"
     inkscape:export-ydpi="111.71">
    <defs
         id="defs2" />
    <sodipodi:namedview
         id="base"
         pagecolor="#ffffff"
         bordercolor="#666666"
         borderopacity="1.0"
         inkscape:pageopacity="0.0"
         inkscape:pageshadow="2"
         inkscape:zoom="1.979899"
         inkscape:cx="103.97794"
         inkscape:cy="140.15658"
         inkscape:document-units="mm"
         inkscape:current-layer="layer1"
         inkscape:document-rotation="0"
         showgrid="false"
         units="px"
         inkscape:window-width="1366"
         inkscape:window-height="736"
         inkscape:window-x="0"
         inkscape:window-y="0"
         inkscape:window-maximized="1" />
    <metadata
         id="metadata5">
        <rdf:RDF>
            <cc:Work
                 rdf:about="">
                <dc:format>image/svg+xml</dc:format>
                <dc:type
                     rdf:resource="http://purl.org/dc/dcmitype/StillImage" />
                <dc:title />
            </cc:Work>
        </rdf:RDF>
    </metadata>
    <g
         inkscape:label="Layer 1"
         inkscape:groupmode="layer"
         id="layer1">
        <g
             id="g1216">
            <rect
                 style="fill:#3c3c3c;fill-opacity:0.999985;stroke:none;stroke-width:5.45388;stroke-miterlimit:4;stroke-dasharray:none;stroke-opacity:1"
                 id="rect1040"
                 width="47.625"
                 height="38.099998"
                 x="4.7624998"
                 y="4.7624998" />
            <circle
                 style="fill:#a60000;fill-opacity:1;stroke:none;stroke-width:0.366959;stroke-miterlimit:4;stroke-dasharray:none;stroke-opacity:1"
                 id="path897"
                 cx="47.27227"
                 cy="10.079079"
                 r="2.9356749" />
            <circle
                 style="fill:#008000;fill-opacity:1;stroke:none;stroke-width:0.366959;stroke-miterlimit:4;stroke-dasharray:none;stroke-opacity:1"
                 id="path897-3"
                 cx="39.036644"
                 cy="10.079079"
                 r="2.9356749" />
            <circle
                 style="fill:#a64f00;fill-opacity:1;stroke:none;stroke-width:0.366959;stroke-miterlimit:4;stroke-dasharray:none;stroke-opacity:1"
                 id="path897-3-5"
                 cx="30.80102"
                 cy="10.079079"
                 r="2.9356749" />
            <rect
                 style="fill:#ffffff;fill-opacity:0.99998498;stroke:none;stroke-width:5.30518;stroke-miterlimit:4;stroke-dasharray:none;stroke-opacity:1"
                 id="rect1141"
                 width="31.75"
                 height="19.049999"
                 x="12.7"
                 y="15.875" />
        </g>
        <g
             id="g1204">
            <rect
                 style="fill:#3c3c3c;fill-opacity:0.999985;stroke:none;stroke-width:5.45388;stroke-miterlimit:4;stroke-dasharray:none;stroke-opacity:1"
                 id="rect1040-8"
                 width="47.625"
                 height="38.099998"
                 x="15.345834"
                 y="24.870834" />
            <circle
                 style="fill:#a60000;fill-opacity:1;stroke:none;stroke-width:0.366959;stroke-miterlimit:4;stroke-dasharray:none;stroke-opacity:1"
                 id="path897-9"
                 cx="57.855606"
                 cy="30.187412"
                 r="2.9356749" />
            <circle
                 style="fill:#008000;fill-opacity:1;stroke:none;stroke-width:0.366959;stroke-miterlimit:4;stroke-dasharray:none;stroke-opacity:1"
                 id="path897-3-7"
                 cx="49.61998"
                 cy="30.187412"
                 r="2.9356749" />
            <circle
                 style="fill:#a64f00;fill-opacity:1;stroke:none;stroke-width:0.366959;stroke-miterlimit:4;stroke-dasharray:none;stroke-opacity:1"
                 id="path897-3-5-3"
                 cx="41.384354"
                 cy="30.187412"
                 r="2.9356749" />
            <rect
                 style="fill:#ffffff;fill-opacity:0.999985;stroke:none;stroke-width:5.30518;stroke-miterlimit:4;stroke-dasharray:none;stroke-opacity:1"
                 id="rect1141-6"
                 width="31.75"
                 height="19.049999"
                 x="23.283335"
                 y="35.983334" />
        </g>
    </g>
</svg>
